INDEX VERSION 1.130+D:\TS\fsd62\Module4\Springboot\EmpDeptWorkspace\.metadata\.plugins\org.eclipse.jdt.core
895354549.index
843985014.index
1034742213.index
274203953.index
3888156989.index
220074353.index
542153213.index
2814880532.index
1507165821.index
1956904976.index
411227453.index
3785521912.index
3511116466.index
555194488.index
701131031.index
674573568.index
4146342223.index
1848704662.index
3106996407.index
4135958314.index
1927401355.index
1772904394.index
43312859.index
175928830.index
326488005.index
2913754457.index
660776122.index
3378244714.index
3436106909.index
2054011443.index
2885606711.index
522346523.index
1946725198.index
4062760635.index
1940653133.index
3541243620.index
19526648.index
1392416953.index
2415472535.index
2728559992.index
3644761064.index
2722509488.index
3279740092.index
2079453450.index
2329579608.index
3403588934.index
1961815414.index
2445313962.index
1927903557.index
795968905.index
1641077711.index
1194094573.index
2182995417.index
793132422.index
1681874028.index
907661244.index
923962918.index
1768497729.index
428230499.index
399005892.index
103378668.index
1829940217.index
4138326577.index
1347859317.index
3843037841.index
3348520720.index
2623349984.index
1600013417.index
3834613619.index
4259073463.index
1930967443.index
1286728287.index
2839471016.index
3209375348.index
373296403.index
3699220134.index
2147395190.index
505255175.index
485984487.index
2597127273.index
153306511.index
1560620610.index
3360219506.index
3040837599.index
2630567770.index
2507423472.index
2897341281.index
3916057132.index
732821349.index
1350448899.index
2032422397.index
2174317631.index
268353784.index
595878280.index
2066830214.index
2205283528.index
2346943830.index
3101911784.index
3355050004.index
792011158.index
1332131779.index
1741011134.index
3954339703.index
1480196670.index
