127.0.0.1 - - [28/Apr/2024:17:47:30 +0530] "GET / HTTP/1.1" 404 752
0:0:0:0:0:0:0:1 - - [28/Apr/2024:17:47:30 +0530] "GET /EmpWebApp/Login.jsp HTTP/1.1" 200 558
0:0:0:0:0:0:0:1 - - [28/Apr/2024:17:47:44 +0530] "POST /EmpWebApp/LoginServlet HTTP/1.1" 404 778
0:0:0:0:0:0:0:1 - - [28/Apr/2024:17:48:04 +0530] "GET /EmpWebApp/Login.jsp HTTP/1.1" 200 558
0:0:0:0:0:0:0:1 - - [28/Apr/2024:17:48:13 +0530] "POST /EmpWebApp/LoginServlet HTTP/1.1" 404 778
127.0.0.1 - - [28/Apr/2024:17:48:27 +0530] "GET / HTTP/1.1" 404 752
127.0.0.1 - - [28/Apr/2024:17:49:06 +0530] "GET / HTTP/1.1" 404 752
127.0.0.1 - - [28/Apr/2024:17:52:33 +0530] "GET / HTTP/1.1" 404 752
127.0.0.1 - - [28/Apr/2024:18:00:51 +0530] "GET / HTTP/1.1" 404 752
0:0:0:0:0:0:0:1 - - [28/Apr/2024:18:00:52 +0530] "GET /EmpWebApp/Login.jsp HTTP/1.1" 200 558
0:0:0:0:0:0:0:1 - - [28/Apr/2024:18:01:02 +0530] "POST /EmpWebApp/LoginServlet HTTP/1.1" 200 648
0:0:0:0:0:0:0:1 - - [28/Apr/2024:18:01:04 +0530] "GET /EmpWebApp/GetEmpById.jsp HTTP/1.1" 200 1200
0:0:0:0:0:0:0:1 - - [28/Apr/2024:18:01:07 +0530] "POST /EmpWebApp/GetEmpById HTTP/1.1" 200 1235
0:0:0:0:0:0:0:1 - - [28/Apr/2024:18:01:09 +0530] "GET /EmpWebApp/GetAllEmployees HTTP/1.1" 200 2695
0:0:0:0:0:0:0:1 - - [28/Apr/2024:18:01:13 +0530] "GET /EmpWebApp/EditEmp?empId=1 HTTP/1.1" 200 1986
