127.0.0.1 - - [25/Apr/2024:19:01:05 +0530] "GET / HTTP/1.1" 404 752
0:0:0:0:0:0:0:1 - - [25/Apr/2024:19:01:06 +0530] "GET /EmpWebApp/LoginServlet HTTP/1.1" 500 46
0:0:0:0:0:0:0:1 - - [25/Apr/2024:19:01:19 +0530] "GET /EmpWebApp/Login.jsp HTTP/1.1" 200 558
0:0:0:0:0:0:0:1 - - [25/Apr/2024:19:01:29 +0530] "POST /EmpWebApp/LoginServlet HTTP/1.1" 200 648
0:0:0:0:0:0:0:1 - - [25/Apr/2024:19:01:32 +0530] "GET /EmpWebApp/GetEmpById.jsp HTTP/1.1" 200 1200
0:0:0:0:0:0:0:1 - - [25/Apr/2024:19:01:36 +0530] "POST /EmpWebApp/GetEmpById HTTP/1.1" 200 739
0:0:0:0:0:0:0:1 - - [25/Apr/2024:19:01:38 +0530] "GET /EmpWebApp/GetAllEmployees HTTP/1.1" 200 2695
0:0:0:0:0:0:0:1 - - [25/Apr/2024:19:01:42 +0530] "GET /EmpWebApp/GetEmpById.jsp HTTP/1.1" 200 1200
0:0:0:0:0:0:0:1 - - [25/Apr/2024:19:01:46 +0530] "POST /EmpWebApp/GetEmpById HTTP/1.1" 200 1235
0:0:0:0:0:0:0:1 - - [25/Apr/2024:19:01:49 +0530] "GET /EmpWebApp/GetAllEmployees HTTP/1.1" 200 2695
0:0:0:0:0:0:0:1 - - [25/Apr/2024:19:02:01 +0530] "GET /EmpWebApp/EditEmp?empId=1 HTTP/1.1" 200 1986
0:0:0:0:0:0:0:1 - - [25/Apr/2024:19:02:04 +0530] "GET /EmpWebApp/GetAllEmployees HTTP/1.1" 200 2695
0:0:0:0:0:0:0:1 - - [25/Apr/2024:19:02:06 +0530] "GET /EmpWebApp/DeleteEmp?empId=1 HTTP/1.1" 200 2383
0:0:0:0:0:0:0:1 - - [25/Apr/2024:19:15:34 +0530] "GET /EmpWebApp/DeleteEmp?empId=1 HTTP/1.1" 200 2383
0:0:0:0:0:0:0:1 - - [25/Apr/2024:19:15:37 +0530] "GET /EmpWebApp/GetAllEmployees HTTP/1.1" 200 2383
0:0:0:0:0:0:0:1 - - [25/Apr/2024:19:15:39 +0530] "GET /EmpWebApp/GetAllEmployees HTTP/1.1" 200 2383
0:0:0:0:0:0:0:1 - - [25/Apr/2024:19:15:39 +0530] "GET /EmpWebApp/GetAllEmployees HTTP/1.1" 200 2383
0:0:0:0:0:0:0:1 - - [25/Apr/2024:19:15:40 +0530] "GET /EmpWebApp/GetAllEmployees HTTP/1.1" 200 2383
0:0:0:0:0:0:0:1 - - [25/Apr/2024:19:15:41 +0530] "GET /EmpWebApp/GetEmpById.jsp HTTP/1.1" 200 1200
0:0:0:0:0:0:0:1 - - [25/Apr/2024:19:15:44 +0530] "POST /EmpWebApp/GetEmpById HTTP/1.1" 200 739
0:0:0:0:0:0:0:1 - - [25/Apr/2024:19:15:51 +0530] "GET /EmpWebApp/Login.jsp HTTP/1.1" 200 558
0:0:0:0:0:0:0:1 - - [25/Apr/2024:19:16:09 +0530] "POST /EmpWebApp/LoginServlet HTTP/1.1" 200 648
0:0:0:0:0:0:0:1 - - [25/Apr/2024:19:16:11 +0530] "GET /EmpWebApp/GetAllEmployees HTTP/1.1" 200 2383
0:0:0:0:0:0:0:1 - - [25/Apr/2024:19:20:33 +0530] "GET /EmpWebApp/GetAllEmployees HTTP/1.1" 200 2695
0:0:0:0:0:0:0:1 - - [25/Apr/2024:19:20:38 +0530] "GET /EmpWebApp/EditEmp?empId=1 HTTP/1.1" 200 1986
